<svg xmlns="http://www.w3.org/2000/svg" width="1016.191" height="760.032" viewBox="0 0 1016.191 760.032">
  <path id="curve_bg_flip" d="M709.734,89.685c41.306-16.791,84.956-30.849,129.518-29.06,65.565,2.578,128.362,41.984,159.211,99.847,26.137,49.018,29.36,106.481,40.617,160.878,13.869,67.031,40.428,130.729,68.809,193.026,15.247,33.416,31.327,67.643,33.827,104.325,3.478,50.918-20.87,101.669-59.041,135.574s-88.9,51.74-139.764,55.641c-27.082,2.078-55.374.156-79.433-12.446-25.448-13.335-43.995-37.438-69.543-50.574-23.681-12.224-51.374-13.891-77.955-12.3A349.1,349.1,0,0,0,614.2,756.221c-37.149,13.957-71.7,34.16-108.77,48.307s-78.489,22.047-116.383,10.235c-35.56-11.113-63.72-38.005-89.09-65.287A1142.55,1142.55,0,0,1,186.384,605.789c-22.881-34.271-44.173-70.432-54.3-110.382-19.336-76.366,7.279-162.533,66.331-214.7,48.9-43.206,114.56-61.964,178.825-73.343,58.6-10.379,126.351-11.024,180.291-38.072C608.987,143.459,655.793,111.621,709.734,89.685Z" transform="translate(-125.853 -60.472)" fill="#ff6c66" opacity="0.1"/>
</svg>
