<svg xmlns="http://www.w3.org/2000/svg" width="240.6" height="50.76" viewBox="0 0 240.6 50.76">
  <g id="rmd_logo_white" transform="translate(1936 -2886)">
    <path id="Union_22" data-name="Union 22" d="M0,43.421V40.738H.009a12.848,12.848,0,0,0,3.414-.325A2.15,2.15,0,0,0,4.85,39.274a6.8,6.8,0,0,0,.367-2.6V12.6a4.637,4.637,0,0,0-.448-2.48,2.313,2.313,0,0,0-1.915-.61H.163V6.826l12.8-2.033h3.505v6.889a8.671,8.671,0,0,0-.654-1.59,5.84,5.84,0,0,0-.98-1.4,3.4,3.4,0,0,0-.865-.642,4.209,4.209,0,0,0-1.084-.38c-.122-.026-.248-.048-.374-.065a7.649,7.649,0,0,0-1.044-.063c-.209,0-.43.006-.717.017l-.425.02h0c-.379.019-.771.038-1.155.038a5.876,5.876,0,0,1-2.02-.293.168.168,0,0,0-.059-.011l-.027,0a.161.161,0,0,0-.117.086.173.173,0,0,0,0,.159c.17.34.325.709.474,1.067a11.194,11.194,0,0,0,.815,1.679A5.019,5.019,0,0,0,11.282,12.6a4.783,4.783,0,0,0,1.017.12c.073,0,.148,0,.229,0,.248,0,.5-.009.751-.018s.5-.017.746-.017a5.256,5.256,0,0,1,1.228.119.529.529,0,0,0,.121.016.28.28,0,0,0,.047,0,.186.186,0,0,0,.163-.189c.04-.48-.852-1.726-2.179-2.171-.339-.113-.695-.212-1.03-.3a.053.053,0,0,1-.042-.056.057.057,0,0,1,.046-.054h.017c.336.042.608.084.856.131a3.625,3.625,0,0,1,2.559,1.6,4.967,4.967,0,0,1,.706,1.863l.028.8c0,.046-.008.091-.014.136a.125.125,0,0,0,.022.091l.013.355A27.416,27.416,0,0,1,18.5,9.762a18.663,18.663,0,0,1,2.95-4.541,10.866,10.866,0,0,1,2.668-2.128,13.436,13.436,0,0,1,3.39-1.325c.39-.1.785-.18,1.179-.247a31.451,31.451,0,0,1,5.574-.34c3.86.03,7.772.281,11.385-1.14a.5.5,0,0,1,.27-.036.524.524,0,0,1,.39.762c-1.3,2.843-2.192,6.146-3.778,8.841a16,16,0,0,1-9.4,7.588,15.35,15.35,0,0,1-3.208.492c-1.023.062-2.065.062-3.106.062a23.608,23.608,0,0,0-6.24.541,1.372,1.372,0,0,1-.531.058c-1.8-.221,1.014-5.786,6.127-7.7,1.044-.391,2.133-.736,3.229-1.077a.179.179,0,0,0-.026-.348.143.143,0,0,0-.054,0c-.912.146-1.812.308-2.7.511-3.336.763-6.183,2.336-7.928,5.353A15.927,15.927,0,0,0,16.757,20.4l.035.98V36.672a5.685,5.685,0,0,0,.448,2.6,2.56,2.56,0,0,0,1.712,1.139,18.446,18.446,0,0,0,4.116.325v2.683H0Z" transform="translate(-1936 2886)" fill="#fff"/>
    <path id="Path_140" data-name="Path 140" d="M4.52-8.48A7.6,7.6,0,0,0,6.5-3.52a6.694,6.694,0,0,0,4.98,1.76,13.938,13.938,0,0,0,2.66-.26A10.626,10.626,0,0,0,16.6-2.8l.6,1.92a14.463,14.463,0,0,1-2.72.9,14.471,14.471,0,0,1-3.24.34Q6.56.36,4.26-2.36a10.967,10.967,0,0,1-2.3-7.32,14.508,14.508,0,0,1,.52-3.96,9.01,9.01,0,0,1,1.58-3.18,7.288,7.288,0,0,1,2.7-2.1,9.261,9.261,0,0,1,3.92-.76,7.223,7.223,0,0,1,5.64,2.12,8.38,8.38,0,0,1,1.92,5.84,13.9,13.9,0,0,1-.1,1.72,10.576,10.576,0,0,1-.3,1.52Zm6.16-9.2a6.253,6.253,0,0,0-2.7.54A5,5,0,0,0,6.1-15.62,6.956,6.956,0,0,0,4.98-13.3a13.18,13.18,0,0,0-.46,2.94H15.68a2.2,2.2,0,0,0,.08-.72v-.64a7.242,7.242,0,0,0-1.16-4.42A4.6,4.6,0,0,0,10.68-17.68ZM25.88-9.2a8.368,8.368,0,0,0,.48,2.88,7.112,7.112,0,0,0,1.32,2.28,6.109,6.109,0,0,0,1.96,1.5A5.544,5.544,0,0,0,32.08-2a5.868,5.868,0,0,0,2.18-.42A4.549,4.549,0,0,0,36.1-3.78a7.238,7.238,0,0,0,1.26-2.44,12.279,12.279,0,0,0,.48-3.7q0-3.72-1.52-5.54a4.832,4.832,0,0,0-3.88-1.82,7.237,7.237,0,0,0-3.66,1,9.011,9.011,0,0,0-2.9,2.64Zm-.52-10.12.56,3.4a10.392,10.392,0,0,1,1.14-1.28,8.729,8.729,0,0,1,1.6-1.22,9.793,9.793,0,0,1,2-.9,7.347,7.347,0,0,1,2.3-.36,6.66,6.66,0,0,1,3.26.78,6.916,6.916,0,0,1,2.36,2.12A9.843,9.843,0,0,1,40-13.66a14.305,14.305,0,0,1,.48,3.74,15.545,15.545,0,0,1-.58,4.48,9.277,9.277,0,0,1-1.64,3.22A6.688,6.688,0,0,1,35.74-.28a7.934,7.934,0,0,1-3.22.64A6.763,6.763,0,0,1,28.68-.76a7.514,7.514,0,0,1-2.52-2.68l-.28.08V7.76H23.2V-19.32ZM48.32,0H45.6V-27.08h2.72Zm7.8-8.48A7.6,7.6,0,0,0,58.1-3.52a6.694,6.694,0,0,0,4.98,1.76,13.938,13.938,0,0,0,2.66-.26A10.626,10.626,0,0,0,68.2-2.8l.6,1.92a14.463,14.463,0,0,1-2.72.9,14.471,14.471,0,0,1-3.24.34q-4.68,0-6.98-2.72a10.967,10.967,0,0,1-2.3-7.32,14.508,14.508,0,0,1,.52-3.96,9.01,9.01,0,0,1,1.58-3.18,7.288,7.288,0,0,1,2.7-2.1,9.261,9.261,0,0,1,3.92-.76,7.223,7.223,0,0,1,5.64,2.12,8.38,8.38,0,0,1,1.92,5.84,13.9,13.9,0,0,1-.1,1.72,10.576,10.576,0,0,1-.3,1.52Zm6.16-9.2a6.253,6.253,0,0,0-2.7.54,5,5,0,0,0-1.88,1.52,6.956,6.956,0,0,0-1.12,2.32,13.18,13.18,0,0,0-.46,2.94H67.28a2.2,2.2,0,0,0,.08-.72v-.64a7.242,7.242,0,0,0-1.16-4.42A4.6,4.6,0,0,0,62.28-17.68ZM77.48,0H74.8V-19.32h2.12l.6,3.36a11.408,11.408,0,0,1,1.2-1.26,10.005,10.005,0,0,1,1.62-1.2,9.949,9.949,0,0,1,1.98-.9,7.291,7.291,0,0,1,2.32-.36,6.02,6.02,0,0,1,4.8,1.98,8.178,8.178,0,0,1,1.72,5.54V0H88.52V-12.16a5.694,5.694,0,0,0-1.16-3.78,3.956,3.956,0,0,0-3.2-1.38,7.2,7.2,0,0,0-3.82,1.06,9.648,9.648,0,0,0-2.86,2.62Zm22.64,0H97.4V-19.32h2.72ZM96.84-25.6a1.9,1.9,0,0,1,.5-1.34,1.839,1.839,0,0,1,1.42-.54,1.827,1.827,0,0,1,1.44.54,1.943,1.943,0,0,1,.48,1.34,1.943,1.943,0,0,1-.48,1.34,1.827,1.827,0,0,1-1.44.54,1.839,1.839,0,0,1-1.42-.54A1.9,1.9,0,0,1,96.84-25.6ZM111.4-1.68a5.548,5.548,0,0,0,3.64-.94,2.977,2.977,0,0,0,1.08-2.34,2.844,2.844,0,0,0-.38-1.48,3.542,3.542,0,0,0-1.04-1.1,7.118,7.118,0,0,0-1.56-.8q-.9-.34-1.9-.66a16.947,16.947,0,0,1-2.16-.86,8.53,8.53,0,0,1-1.84-1.18,5.3,5.3,0,0,1-1.28-1.6,4.429,4.429,0,0,1-.48-2.08,4.21,4.21,0,0,1,1.84-3.68,8.545,8.545,0,0,1,4.96-1.28,15.68,15.68,0,0,1,3.12.3,11.155,11.155,0,0,1,2.64.86,7.912,7.912,0,0,1-.3,1q-.18.48-.3.92a11.7,11.7,0,0,0-2.28-.74,12.481,12.481,0,0,0-2.64-.26,5.885,5.885,0,0,0-3.38.78,2.412,2.412,0,0,0-1.1,2.06,2.544,2.544,0,0,0,1.16,2.28,11.733,11.733,0,0,0,3,1.32,14.584,14.584,0,0,1,4.86,2.4,4.707,4.707,0,0,1,1.7,3.84,4.732,4.732,0,0,1-1.74,3.84Q115.28.36,111.52.36a19.373,19.373,0,0,1-3.38-.28,9.324,9.324,0,0,1-2.66-.84q.12-.48.3-1t.3-.96a14.83,14.83,0,0,0,2.48.74A13.516,13.516,0,0,0,111.4-1.68ZM126.64,0h-2.68V-27.08h2.68V-16a10.278,10.278,0,0,1,1.2-1.24,10.327,10.327,0,0,1,1.64-1.18,10.313,10.313,0,0,1,2.02-.9,7.347,7.347,0,0,1,2.3-.36,6.02,6.02,0,0,1,4.8,1.98,8.178,8.178,0,0,1,1.72,5.54V0h-2.6V-12.16a5.629,5.629,0,0,0-1.18-3.78,4.015,4.015,0,0,0-3.22-1.38,7.524,7.524,0,0,0-3.84,1.02,8.887,8.887,0,0,0-2.84,2.54Zm30.32-4.12L152.72-14q-.8-1.92-1.32-3.54t-1-3.42h-.12q.16.92.3,1.96t.24,2.08q.1,1.04.16,2t.06,1.72V0H146V-26.96h5.84l5.44,12.4a33.073,33.073,0,0,1,1.34,3.52,19.45,19.45,0,0,1,.74,3.2h.08a19.45,19.45,0,0,1,.74-3.2,33.073,33.073,0,0,1,1.34-3.52l5.44-12.4h5.84V0h-5.04V-13.2q0-.76.06-1.72t.16-2q.1-1.04.24-2.08t.3-1.96h-.12q-.48,1.8-1,3.42T166.08-14l-4.24,9.88ZM200.6-13.6q0,6.72-3.54,10.16T186.8,0h-8.4V-26.96h8.4q6.72,0,10.26,3.42T200.6-13.6Zm-5.2,0a12.373,12.373,0,0,0-.6-4.1,6.983,6.983,0,0,0-1.7-2.76A6.518,6.518,0,0,0,190.4-22a12.516,12.516,0,0,0-3.6-.48h-3.2v18h3.2A11.617,11.617,0,0,0,190.4-5a6.555,6.555,0,0,0,2.7-1.64,7.512,7.512,0,0,0,1.7-2.84A12.555,12.555,0,0,0,195.4-13.6Zm8.72,11a3.172,3.172,0,0,1,.84-2.18,3.051,3.051,0,0,1,2.4-.94,3.051,3.051,0,0,1,2.4.94,3.172,3.172,0,0,1,.84,2.18,3.172,3.172,0,0,1-.84,2.18,3.051,3.051,0,0,1-2.4.94,3.051,3.051,0,0,1-2.4-.94A3.172,3.172,0,0,1,204.12-2.6Z" transform="translate(-1906 2929)" fill="#fff"/>
  </g>
</svg>
